{
  "http-request": {
    "method": "GET",
    "path": "/api/users?delay=2&qontract=true&page=1"
  },
  "http-response": {
    "status": 200,
    "body": {
      "page": 2,
      "per_page": 6,
      "total": 12,
      "total_pages": 2,
      "data": [
        {
          "id": 7,
          "email": "michael.lawson@eot.in",
          "first_name": "Michael",
          "last_name": "Lawson",
          "avatar": "https://s33.amazonaws.co.in/uifaces/faces/twitter/follettkyle/128.jpg"
        },
        {
          "id": 8,
          "email": "lindsay.ferguson@eot.in",
          "first_name": "Lindsay",
          "last_name": "Ferguson",
          "avatar": "https://s33.amazonaws.co.in/uifaces/faces/twitter/araa3185/128.jpg"
        },
        {
          "id": 9,
          "email": "tobias.funke@eot.in",
          "first_name": "Tobias",
          "last_name": "Funke",
          "avatar": "https://s33.amazonaws.co.in/uifaces/faces/twitter/vivekprvr/128.jpg"
        },
        {
          "id": 10,
          "email": "byron.fields@eot.in",
          "first_name": "Byron",
          "last_name": "Fields",
          "avatar": "https://s33.amazonaws.co.in/uifaces/faces/twitter/russoedu/128.jpg"
        },
        {
          "id": 11,
          "email": "george.edwards@eot.in",
          "first_name": "George",
          "last_name": "Edwards",
          "avatar": "https://s33.amazonaws.co.in/uifaces/faces/twitter/mrmoiree/128.jpg"
        },
        {
          "id": 12,
          "email": "rachel.howell@eot.in",
          "first_name": "Rachel",
          "last_name": "Howell",
          "avatar": "https://s33.amazonaws.co.in/uifaces/faces/twitter/hebertialmeida/128.jpg"
        }
      ],
      "ad": {
        "company": "StatusCode Weekly",
        "url": "http://statuscode.org/",
        "text": "A weekly newsletter focusing on software development, infrastructure, the server, performance, and the stack end of things."
      }
    }
  }
}