{
  "http-request": {
    "method": "GET",
    "path": "/api/users",
    "query": {
      "delay": "2",
      "page": "1"
    }
  },
  "http-response": {
    "status": 200,
    "body": {
      "page": 1,
      "per_page": 6,
      "total": 12,
      "total_pages": 10,
      "data": [
        {
          "id": 1,
          "email": "who.cares@myemail.in",
          "first_name": "A",
          "last_name": "B",
          "avatar": "https://commons.wikimedia.org/wiki/File:User_font_awesome.svg"
        },
        {
          "id": 2,
          "email": "lindsay.ferguson@eot.in",
          "first_name": "Lindsay",
          "last_name": "Ferguson",
          "avatar": "https://commons.wikimedia.org/wiki/File:User_font_awesome.svg"
        },
        {
          "id": 3,
          "email": "tobias.funke@eot.in",
          "first_name": "Tobias",
          "last_name": "Funke",
          "avatar": "https://commons.wikimedia.org/wiki/File:User_font_awesome.svg"
        },
        {
          "id": 4,
          "email": "byron.fields@eot.in",
          "first_name": "Byron",
          "last_name": "Fields",
          "avatar": "https://commons.wikimedia.org/wiki/File:User_font_awesome.svg"
        },
        {
          "id": 5,
          "email": "george.edwards@eot.in",
          "first_name": "George",
          "last_name": "Edwards",
          "avatar": "https://commons.wikimedia.org/wiki/File:User_font_awesome.svg"
        },
        {
          "id": 6,
          "email": "rachel.howell@eot.in",
          "first_name": "Rachel",
          "last_name": "Howell",
          "avatar": "https://commons.wikimedia.org/wiki/File:User_font_awesome.svg"
        }
      ],
      "ad": {
        "company": "StatusCode Weekly",
        "url": "http://statuscode.org/",
        "text": "A weekly newsletter focusing on software development, infrastructure, the server, performance, and the stack end of things."
      }
    }
  }
}